<?xml version="1.0" encoding="utf-8"?>
<!-- Generator: Adobe Illustrator 17.1.0, SVG Export Plug-In . SVG Version: 6.00 Build 0)  -->
<!DOCTYPE svg PUBLIC "-//W3C//DTD SVG 1.1//EN" "http://www.w3.org/Graphics/SVG/1.1/DTD/svg11.dtd">
<svg version="1.1" id="Livello_1" xmlns="http://www.w3.org/2000/svg" xmlns:xlink="http://www.w3.org/1999/xlink" x="0px" y="0px"
	 width="24px" height="24px" viewBox="-0.5 -0.5 24 24" enable-background="new -0.5 -0.5 24 24" xml:space="preserve">
<g id="Livello_1_1_">
</g>
<rect x="-0.5" y="-0.5" fill="none" width="24" height="24"/>
<g>
	<polygon fill="#192759" points="23.5,19.5 23.5,4.3 15.3,10.6 19.5,15.4 19.4,15.6 14.4,11.2 11.5,13.5 8.5,11.2 3.6,15.6 
		3.4,15.4 7.6,10.6 -0.5,4.3 -0.5,19.5 	"/>
	<polygon fill="#192759" points="23,3.5 -0.1,3.5 11.5,12.3 	"/>
</g>
</svg>
